{
  "forge_marker": 1,
  "defaults": {
    "model": "cube_all",
    "transform": "forge:default-block"
  },
  "variants": {
    "inventory": [
      {}
    ],
    "normal": {
      "textures": {
        "all": "playerutils:blocks/energy/producers/player"
      }
    }
  }
}